{
  "content": [
    {
      "id": 1,
      "stockCode": "601099.SH",
      "orgId": "02600181",
      "orgNameCn": "太平洋证券股份有限公司",
      "orgShortNameCn": "太平洋",
      "orgNameEn": "The Pacific Securities Co., Ltd.",
      "orgShortNameEn": "PACIFIC SECURITIES",
      "mainOperationBusiness": "证券经纪业务、信用业务、证券投资业务的开发和服务。",
      "operatingScope": "　　证券经纪；证券投资咨询；与证券交易、证券投资活动有关的财务顾问；证券自营；证券承销与保荐；证券资产管理；证券投资基金销售；代销金融产品；融资融券；中国证监会批准的其他业务。",
      "districtEncode": "530103",
      "provincialName": "云南省",
      "orgCnIntroduction": "太平洋证券股份有限公司的主营业务是证券经纪业务、信用业务、证券投资业务的开发和服务。公司的主要产品是证券经纪业务、信用业务、证券投资业务、投资银行业务。公司获得“A股股权承销快速进步奖”“A股再融资承销快速进步奖”。",
      "legalRepresentative": "李长伟",
      "generalManager": "李长伟",
      "secretary": "栾峦",
      "chairman": "郑亚南",
      "executivesNums": 21,
      "establishedDate": 1073318400000,
      "regAsset": 6816316370,
      "staffNum": 1636,
      "telephone": "86-871-68898121",
      "postcode": "650224",
      "fax": "86-871-68898100",
      "email": "tpy@tpyzq.com;luanluan@tpyzq.com;lvyan@tpyzq.com",
      "orgWebsite": "www.tpyzq.com",
      "regAddressCn": "云南省昆明市盘龙区北京路926号同德广场写字楼31楼",
      "regAddressEn": null,
      "officeAddressCn": "云南省昆明市盘龙区北京路926号同德广场写字楼31楼",
      "officeAddressEn": null,
      "currencyEncode": "019001",
      "listedDate": 1198771200000,
      "actualController": "北京华信六合投资有限公司 (10.83%)，北京玺萌置业有限公司 (6.82%)，大华大陆投资有限公司 (2.05%)，中储发展股份有限公司 (1.20%)，云南省国有资产经营有限责任公司 (0.02%)",
      "classiName": "民营企业",
      "preNameCn": null,
      "actualIssueVol": 42000000,
      "issuePrice": 8,
      "actualRcNetAmt": 336000000,
      "peAfterIssuing": null,
      "onlineSuccessRateOfIssue": null,
      "affiliateIndustry": "{\"ind_code\": \"BK0057\", \"ind_name\": \"证券\"}",
      "createdAt": "2025-09-04T23:15:17.730293Z",
      "updatedAt": "2025-09-04T23:15:17.730293Z"
    },
    {
      "id": 2,
      "stockCode": "603817.SH",
      "orgId": "T000208974",
      "orgNameCn": "福建海峡环保集团股份有限公司",
      "orgShortNameCn": "海峡环保",
      "orgNameEn": "Fujian Haixia Environmental Protection Group Co.,Ltd.",
      "orgShortNameEn": "Haixia Environmental Protection",
      "mainOperationBusiness": "水处理业务、固废业务及综合技术服务。",
      "operatingScope": "　　污水处理及其再生利用；对污水厂及污水收集、处理、排放设施的投资、建设、管理、维护；给排水工程的咨询、设计；设备销售安装；污水处理、污泥处理的研究、开发、技术转让；城市污水处理作业人员的培训考核鉴定工作；水污染治理；固体废物治理及发电（不含危险废物处理）。（依法须经批准的项目，经相关部门批准后方可开展经营活动）",
      "districtEncode": "350111",
      "provincialName": "福建省",
      "orgCnIntroduction": "福建海峡环保集团股份有限公司的主营业务是水处理业务、固废业务及综合技术服务。公司的主要产品是污水处理、垃圾渗沥液处理。公司连续两年蝉联“福建环保企业百强榜”并先后荣获“全国减排先进集体”、“中国水业最具社会责任投资运营企业”、“中国水业最具成长性投资运营企业”、“水业最具专业化运营服务企业”、“福建省环境污染治理设施优秀运营服务单位”等荣誉称号，入选福建省环境保护产业协会“优秀会员单位”。",
      "legalRepresentative": "徐婷",
      "generalManager": "卓贤文",
      "secretary": "林志军",
      "chairman": "徐婷",
      "executivesNums": 18,
      "establishedDate": 1025798400000,
      "regAsset": 570084039,
      "staffNum": 842,
      "telephone": "86-591-83626529",
      "postcode": "350014",
      "fax": "86-591-83626529",
      "email": "fjhxhb@fjhxhb.com;chenxiulan@fjhxhb.com",
      "orgWebsite": "www.fjhxhb.com",
      "regAddressCn": "福建省福州市晋安区鼓山镇洋里路16号",
      "regAddressEn": null,
      "officeAddressCn": "福建省福州市晋安区鼓山镇洋里路16号",
      "officeAddressEn": null,
      "currencyEncode": "019001",
      "listedDate": 1487520000000,
      "actualController": "福州市人民政府国有资产监督管理委员会 (48.38%)",
      "classiName": "地市国资控股",
      "preNameCn": null,
      "actualIssueVol": 112500000,
      "issuePrice": 4.04,
      "actualRcNetAmt": 412697200,
      "peAfterIssuing": 22.99,
      "onlineSuccessRateOfIssue": 0.064594,
      "affiliateIndustry": "{\"ind_code\": \"BK0081\", \"ind_name\": \"环境治理\"}",
      "createdAt": "2025-09-04T23:15:18.108068Z",
      "updatedAt": "2025-09-04T23:15:18.108068Z"
    },
    {
      "id": 3,
      "stockCode": "603101.SH",
      "orgId": "T000074037",
      "orgNameCn": "新疆汇嘉时代百货股份有限公司",
      "orgShortNameCn": "汇嘉时代",
      "orgNameEn": "Xinjiang Wuika Times Department Store Co.,Ltd.",
      "orgShortNameEn": "Wuika Times",
      "mainOperationBusiness": "百货、超市等相关商品零售、商业物业租赁及物业管理。",
      "operatingScope": "　　一般项目：日用百货销售；服装服饰零售；文具用品零售；办公用品销售；鲜肉零售；新鲜蔬菜零售；新鲜水果零售；计算机及办公设备维修；家用电器销售；五金产品零售；智能无人飞行器销售；智能家庭消费设备销售；助动自行车、代步车及零配件销售；汽车装饰用品销售；电子产品销售；家用电器零配件销售；技术服务、技术开发、技术咨询、技术交流、技术转让、技术推广；日用品销售；日用杂品销售；体育用品及器材零售；商业综合体管理服务；卫生用品和一次性使用医疗用品销售；第一类医疗器械销售；服装辅料销售；服装服饰批发；劳动保护用品销售；会议及展览服务；塑料制品销售；玩具、动漫及游艺用品销售；游艺用品及室内游艺器材销售；工艺美术品及礼仪用品销售（象牙及其制品除外）；照相机及器材销售；办公设备耗材销售；玩具销售；文具用品批发；办公设备销售；五金产品批发；通讯设备销售；钟表销售；日用产品修理；金属工具销售；日用玻璃制品销售；日用品批发；建筑装饰材料销售；搪瓷制品销售；广告设计、代理；广告制作；非居住房地产租赁；珠宝首饰零售；停车场服务；新鲜蔬菜批发；新鲜水果批发；未经加工的坚果、干果销售；包装服务；食用农产品零售；劳务服务（不含劳务派遣）；电子专用设备销售；环境保护专用设备销售；移动终端设备销售；家具销售；家具安装和维修服务；物业管理。（除依法须经批准的项目外，凭营业执照依法自主开展经营活动）许可项目：出版物批发；烟草制品零售；食品销售；餐饮服务；出版物零售。（依法须经批准的项目，经相关部门批准后方可开展经营活动，具体经营项目以相关部门批准文件或许可证件为准）",
      "districtEncode": "650104",
      "provincialName": "新疆维吾尔自治区",
      "orgCnIntroduction": "新疆汇嘉时代百货股份有限公司的主营业务是百货、超市等相关商品零售、商业物业租赁及物业管理。公司的主要产品是百货、超市。",
      "legalRepresentative": "朱翔",
      "generalManager": "朱翔",
      "secretary": "张佩",
      "chairman": "潘丁睿",
      "executivesNums": 12,
      "establishedDate": 1207497600000,
      "regAsset": 470400000,
      "staffNum": 3135,
      "telephone": "86-991-2806989",
      "postcode": "830002",
      "fax": "86-991-2826501",
      "email": "hjsd@wuikatimes.com",
      "orgWebsite": "www.wuikatimes.com",
      "regAddressCn": "新疆维吾尔自治区乌鲁木齐市新市区高新技术产业开发区北京南路钻石城5号1栋23层",
      "regAddressEn": null,
      "officeAddressCn": "新疆维吾尔自治区乌鲁木齐市天山区前进街58号",
      "officeAddressEn": null,
      "currencyEncode": "019001",
      "listedDate": 1462464000000,
      "actualController": "潘锦海 (56.47%)",
      "classiName": "民营企业",
      "preNameCn": null,
      "actualIssueVol": 60000000,
      "issuePrice": 8.81,
      "actualRcNetAmt": 479299300,
      "peAfterIssuing": 22.98,
      "onlineSuccessRateOfIssue": 0.060456,
      "affiliateIndustry": "{\"ind_code\": \"BK0058\", \"ind_name\": \"零售\"}",
      "createdAt": "2025-09-04T23:15:18.465103Z",
      "updatedAt": "2025-09-04T23:15:18.465103Z"
    },
    {
      "id": 4,
      "stockCode": "601086.SH",
      "orgId": "T000137050",
      "orgNameCn": "甘肃国芳工贸(集团)股份有限公司",
      "orgShortNameCn": "国芳集团",
      "orgNameEn": "Gansu Guofang Industry&Trade(Group)Co.,Ltd.",
      "orgShortNameEn": "GGITG",
      "mainOperationBusiness": "以百货业为主，超市、电器为辅的连锁零售业务。",
      "operatingScope": "　　图书、报刊、音像制品、预装食品、散装食品、冷冻食品、米、面制品及食用油、保健食品、计生用品的批发零售；服装干洗；美容；白酒、啤酒、果露酒零售；卷烟、雪茄烟零售（以上经营项目仅限分公司凭有效许可证经营）日用百货、金银饰品、服饰用品、文化用品、体育用品、家电、数码电器、五金交电、机电产品（不含汽车）的批发零售；受托企业管理；彩扩、婚纱摄影；商业服务咨询、本企业资金投资管理，租赁。（依法须经批准的项目，经相关部门批准后可开展经营活动）。",
      "districtEncode": "620102",
      "provincialName": "甘肃省",
      "orgCnIntroduction": "甘肃国芳工贸(集团)股份有限公司的主营业务是以百货业为主，超市、电器为辅的连锁零售业务。公司的主要产品是百货、超市、电器、房地产租赁。公司在甘肃省经营零售业务已二十余年，在甘青宁区域内拥有领先的市场地位，目前为甘肃省内最大的连锁零售企业。",
      "legalRepresentative": "张辉",
      "generalManager": "张辉",
      "secretary": "马琳",
      "chairman": "张辉阳",
      "executivesNums": 10,
      "establishedDate": 830102400000,
      "regAsset": 666000000,
      "staffNum": 949,
      "telephone": "86-931-8803618",
      "postcode": "730000",
      "fax": "86-931-8803618",
      "email": "gfzhengquan@guofanggroup.com;ir@guofanggroup.com",
      "orgWebsite": "www.guofanggroup.com",
      "regAddressCn": "甘肃省兰州市城关区广场南路4-6号",
      "regAddressEn": null,
      "officeAddressCn": "甘肃省兰州市城关区广场南路4-6号",
      "officeAddressEn": null,
      "currencyEncode": "019001",
      "listedDate": 1506614400000,
      "actualController": "张国芳 (41.12%)，张春芳 (20.93%)",
      "classiName": "民营企业",
      "preNameCn": null,
      "actualIssueVol": 160000000,
      "issuePrice": 3.16,
      "actualRcNetAmt": 465397200,
      "peAfterIssuing": 22.92,
      "onlineSuccessRateOfIssue": 0.073058,
      "affiliateIndustry": "{\"ind_code\": \"BK0058\", \"ind_name\": \"零售\"}",
      "createdAt": "2025-09-04T23:15:18.828971Z",
      "updatedAt": "2025-09-04T23:15:18.828971Z"
    },
    {
      "id": 5,
      "stockCode": "600865.SH",
      "orgId": "02600865",
      "orgNameCn": "百大集团股份有限公司",
      "orgShortNameCn": "百大集团",
      "orgNameEn": "Baida Group Co.,Ltd.",
      "orgShortNameEn": "BAIDA GROUP",
      "mainOperationBusiness": "商品零售。",
      "operatingScope": "　　一般项目：日用百货销售；日用品销售；日用杂品销售；日用品批发；五金产品零售；五金产品批发；针纺织品销售；化工产品销售（不含许可类化工产品）；工艺美术品及礼仪用品销售（象牙及其制品除外）；工艺美术品及收藏品零售（象牙及其制品除外）；宠物食品及用品零售；礼品花卉销售；建筑装饰材料销售；家具销售；劳动保护用品销售；汽车零配件批发；珠宝首饰零售；珠宝首饰批发；珠宝首饰回收修理服务；家用电器销售；仪器仪表销售；电子产品销售；通讯设备销售；玩具、动漫及游艺用品销售；第一类医疗器械销售；第二类医疗器械销售；计算机软硬件及辅助设备零售；化妆品批发；化妆品零售；服装服饰批发；服装服饰零售；眼镜销售（不含隐形眼镜）；皮革制品销售；鞋和皮革修理；互联网销售（除销售需要许可的商品）；广告设计、代理；广告制作；广告发布；非居住房地产租赁；住房租赁；柜台、摊位出租；摄影扩印服务；普通货物仓储服务（不含危险化学品等需许可审批的项目）；集贸市场管理服务；社会经济咨询服务；市场营销策划；洗染服务；洗车服务；代驾服务；打字复印；技术服务、技术开发、技术咨询、技术交流、技术转让、技术推广；日用产品修理；日用电器修理；家用电器安装服务；缝纫修补服务；信息咨询服务（不含许可类信息咨询服务）；会议及展览服务；物业管理；酒店管理；货物进出口(除依法须经批准的项目外，凭营业执照依法自主开展经营活动)。以下限分支机构经营：许可项目：食品销售；食品互联网销售；烟草制品零售；药品零售；出版物零售；餐饮服务；住宿服务；生活美容服务；理发服务。（依法须经批准的项目，经相关部门批准后方可开展经营活动，具体经营项目以审批结果为准）",
      "districtEncode": "330105",
      "provincialName": "浙江省",
      "orgCnIntroduction": "百大集团股份有限公司的主营业务是商品零售。公司的主要产品是百货商场、物业租赁、物业服务。",
      "legalRepresentative": "吴南平",
      "generalManager": "王卫红",
      "secretary": "陈琳玲",
      "chairman": "吴南平",
      "executivesNums": 14,
      "establishedDate": 717782400000,
      "regAsset": 376240316,
      "staffNum": 112,
      "telephone": "86-571-85823016",
      "postcode": "311100",
      "fax": "86-571-85174900",
      "email": "baida@baidagroup.com;invest@baidagroup.com",
      "orgWebsite": "www.baidagroup.com",
      "regAddressCn": "浙江省杭州市拱墅区延安路546号",
      "regAddressEn": null,
      "officeAddressCn": "浙江省杭州市临平区南苑街22号西子国际2号楼34楼",
      "officeAddressEn": null,
      "currencyEncode": "019001",
      "listedDate": 776361600000,
      "actualController": "陈夏鑫 (46.96%)",
      "classiName": "民营企业",
      "preNameCn": "百大集团股份有限公司(杭州)",
      "actualIssueVol": 25000000,
      "issuePrice": 5.8,
      "actualRcNetAmt": 141000000,
      "peAfterIssuing": 14.15,
      "onlineSuccessRateOfIssue": 100,
      "affiliateIndustry": "{\"ind_code\": \"BK0058\", \"ind_name\": \"零售\"}",
      "createdAt": "2025-09-04T23:15:19.197456Z",
      "updatedAt": "2025-09-04T23:15:19.197456Z"
    },
    {
      "id": 6,
      "stockCode": "603222.SH",
      "orgId": "T000059826",
      "orgNameCn": "济民健康管理股份有限公司",
      "orgShortNameCn": "济民健康",
      "orgNameEn": "Chimin Health Management Co., Ltd.",
      "orgShortNameEn": "Chimin",
      "mainOperationBusiness": "医疗服务业务，医疗器械的研发、生产和销售，大输液系列产品的研发、生产和销售。",
      "operatingScope": "　　一般项目：健康咨询服务（不含诊疗服务）；技术服务、技术开发、技术咨询、技术交流、技术转让、技术推广；医院管理；第二类医疗器械销售；医用口罩零售；医用口罩批发；日用口罩（非医用）生产；日用口罩（非医用）销售；塑料制品制造；塑料制品销售；第一类医疗器械销售；第一类医疗器械生产；医用包装材料制造；包装材料及制品销售；产业用纺织制成品销售；产业用纺织制成品制造；企业总部管理；信息咨询服务（不含许可类信息咨询服务）；以自有资金从事投资活动(除依法须经批准的项目外，凭营业执照依法自主开展经营活动)。许可项目：医疗服务；第二类医疗器械生产；货物进出口；医用口罩生产；药品生产；药品进出口；药品零售；技术进出口；第三类医疗器械经营；第三类医疗器械生产；药品批发(依法须经批准的项目，经相关部门批准后方可开展经营活动，具体经营项目以审批结果为准)。",
      "districtEncode": "331003",
      "provincialName": "浙江省",
      "orgCnIntroduction": "济民健康管理股份有限公司的主营业务是医疗服务业务，医疗器械的研发、生产和销售，大输液系列产品的研发、生产和销售。公司的主要产品是医疗服务、注射穿刺器械系列产品、预充式导管冲洗器系列产品、体外诊断系列产品、基础输液、电解质输液、冲洗剂、治疗性输液。",
      "legalRepresentative": "李丽莎",
      "generalManager": "田云飞",
      "secretary": "陈坤",
      "chairman": "李丽莎",
      "executivesNums": 12,
      "establishedDate": 851356800000,
      "regAsset": 525090615,
      "staffNum": 1994,
      "telephone": "86-576-84066800",
      "postcode": "318020",
      "fax": "86-576-84066800",
      "email": "investment@chimin.cn",
      "orgWebsite": "www.chimin.cn",
      "regAddressCn": "浙江省台州市黄岩区北院路888号",
      "regAddressEn": null,
      "officeAddressCn": "浙江省台州市黄岩区北院路888号",
      "officeAddressEn": null,
      "currencyEncode": "019001",
      "listedDate": 1424102400000,
      "actualController": "李仙玉 (24.03%)，张雪琴 (13.01%)，李丽莎 (2.69%)，李慧慧 (2.04%)，别涌 (0.68%)，田云飞 (0.68%)",
      "classiName": "民营企业",
      "preNameCn": "浙江济民制药股份有限公司",
      "actualIssueVol": 40000000,
      "issuePrice": 7.36,
      "actualRcNetAmt": 251125400,
      "peAfterIssuing": 22.96,
      "onlineSuccessRateOfIssue": 0.539173,
      "affiliateIndustry": "{\"ind_code\": \"BK0044\", \"ind_name\": \"医疗器械\"}",
      "createdAt": "2025-09-04T23:15:19.561385Z",
      "updatedAt": "2025-09-04T23:15:19.561385Z"
    },
    {
      "id": 7,
      "stockCode": "605188.SH",
      "orgId": "T004666908",
      "orgNameCn": "江西国光商业连锁股份有限公司",
      "orgShortNameCn": "国光连锁",
      "orgNameEn": "Jiangxi Guoguang Commercial Chains Co.,Ltd.",
      "orgShortNameEn": "GUOGUANG CHAINS",
      "mainOperationBusiness": "连锁超市、百货商场的运营业务。",
      "operatingScope": "　　商业经营；商业投资管理；经营场地出租；停车场管理。(依法须经批准的项目，经相关部门批准后方可开展经营活动)。",
      "districtEncode": "360803",
      "provincialName": "江西省",
      "orgCnIntroduction": "江西国光商业连锁股份有限公司的主营业务是连锁超市、百货商场的运营业务。公司的主要产品是超市、百货。",
      "legalRepresentative": "胡金根",
      "generalManager": "胡志超",
      "secretary": "廖芳",
      "chairman": "胡金根",
      "executivesNums": 10,
      "establishedDate": 1131465600000,
      "regAsset": 501351500,
      "staffNum": 4281,
      "telephone": "86-796-8117072",
      "postcode": "343000",
      "fax": "86-796-8115138",
      "email": "investors.gg@jxggls.com",
      "orgWebsite": "www.jxggls.com",
      "regAddressCn": "江西省吉安市青原区文天祥大道8号",
      "regAddressEn": null,
      "officeAddressCn": "江西省吉安市青原区文天祥大道8号",
      "officeAddressEn": null,
      "currencyEncode": "019001",
      "listedDate": 1595865600000,
      "actualController": "胡金根 (41.28%)，蒋淑兰 (16.53%)，胡志超 (14.37%)，胡智敏 (8.90%)，胡春香 (2.15%)",
      "classiName": "民营企业",
      "preNameCn": "江西国光商业连锁有限责任公司",
      "actualIssueVol": 49580000,
      "issuePrice": 4.65,
      "actualRcNetAmt": 188516400,
      "peAfterIssuing": 22.98,
      "onlineSuccessRateOfIssue": 0.040802,
      "affiliateIndustry": "{\"ind_code\": \"BK0058\", \"ind_name\": \"零售\"}",
      "createdAt": "2025-09-04T23:15:19.933059Z",
      "updatedAt": "2025-09-04T23:15:19.933059Z"
    },
    {
      "id": 8,
      "stockCode": "603839.SH",
      "orgId": "T000184677",
      "orgNameCn": "安正时尚集团股份有限公司",
      "orgShortNameCn": "安正时尚",
      "orgNameEn": "Anzheng Fashion Group Co.,Ltd.",
      "orgShortNameEn": "Anzheng Fashion",
      "mainOperationBusiness": "中高档品牌时装的自主研发、生产、销售及品牌管理。",
      "operatingScope": "　　医用口罩生产；消毒剂生产（不含危险化学品）；第二类增值电信业务；艺术品进出口；货物进出口；技术进出口；进出口代理(依法须经批准的项目，经相关部门批准后方可开展经营活动，具体经营项目以审批结果为准)。一般项目：服装制造；服饰制造；服装服饰批发；服装服饰零售；针织或钩针编织物及其制品制造；针纺织品销售；羽毛(绒)及制品制造；家用纺织制成品制造；日用杂品制造；日用百货销售；鞋制造；箱包制造；鞋帽批发；鞋帽零售；箱包销售；鞋和皮革修理；体育用品制造；体育用品及器材批发；体育用品及器材零售；日用口罩（非医用）生产；日用口罩（非医用）销售；医用口罩批发；医用口罩零售；特种劳动防护用品生产；特种劳动防护用品销售；劳动保护用品生产；劳动保护用品销售；医护人员防护用品批发；医护人员防护用品零售；日用化学产品制造；个人卫生用品销售；卫生用品和一次性使用医疗用品销售；消毒剂销售（不含危险化学品）；会议及展览服务；娱乐性展览；互联网销售（除销售需要许可的商品）(除依法须经批准的项目外，凭营业执照依法自主开展经营活动)。",
      "districtEncode": "330481",
      "provincialName": "浙江省",
      "orgCnIntroduction": "安正时尚集团股份有限公司的主营业务是中高档品牌时装的自主研发、生产、销售及品牌管理。公司的主要产品是上衣、裙类、外套、裤类、皮衣、羽绒服、儿童服装、儿童用品、电商服务。",
      "legalRepresentative": "郑安政",
      "generalManager": "郑安政",
      "secretary": "唐普阔",
      "chairman": "郑安政",
      "executivesNums": 12,
      "establishedDate": 1212595200000,
      "regAsset": 389034500,
      "staffNum": 1597,
      "telephone": "86-21-32566088",
      "postcode": "200335",
      "fax": "86-573-87266026",
      "email": "info@anzhenggroup.com",
      "orgWebsite": "anzhenggroup.com",
      "regAddressCn": "浙江省嘉兴市海宁市海宁经济开发区谷水路298号",
      "regAddressEn": null,
      "officeAddressCn": "上海市长宁区临虹路168弄7号楼",
      "officeAddressEn": null,
      "currencyEncode": "019001",
      "listedDate": 1487001600000,
      "actualController": "郑安政 (30.38%)",
      "classiName": "民营企业",
      "preNameCn": null,
      "actualIssueVol": 71260000,
      "issuePrice": 16.78,
      "actualRcNetAmt": 1114551100,
      "peAfterIssuing": 22.98,
      "onlineSuccessRateOfIssue": 0.045571,
      "affiliateIndustry": "{\"ind_code\": \"BK0036\", \"ind_name\": \"服装家纺\"}",
      "createdAt": "2025-09-04T23:15:20.292490Z",
      "updatedAt": "2025-09-04T23:15:20.292490Z"
    },
    {
      "id": 9,
      "stockCode": "603630.SH",
      "orgId": "T000219342",
      "orgNameCn": "拉芳家化股份有限公司",
      "orgShortNameCn": "拉芳家化",
      "orgNameEn": "Lafang Jiahua Co.,Ltd.",
      "orgShortNameEn": "Lafang",
      "mainOperationBusiness": "洗护类、护肤类、彩妆类产品的研发、生产和销售。",
      "operatingScope": "　　生产：洗发护发用品、美容护肤化妆品、家庭清洁用品及其他日用化学产品、消毒产品、工业防护用品（涉及行业许可管理的，按国家有关规定办理）。（依法须经批准的项目，经相关部门批准后方可开展经营活动。）",
      "districtEncode": "440514",
      "provincialName": "广东省",
      "orgCnIntroduction": "拉芳家化股份有限公司的主营业务是洗护类、护肤类、彩妆类产品的研发、生产和销售。公司的主要产品是膏霜、护发素、沐浴露、洗发露、香皂、啫喱水、啫喱膏。",
      "legalRepresentative": "吴桂谦",
      "generalManager": "吴桂谦",
      "secretary": "张晨",
      "chairman": "吴桂谦",
      "executivesNums": 11,
      "establishedDate": 1008259200000,
      "regAsset": 225204580,
      "staffNum": 1073,
      "telephone": "86-754-89833339",
      "postcode": "515041",
      "fax": "86-754-89833339",
      "email": "laf@vip.126.com",
      "orgWebsite": "www.laf.cn",
      "regAddressCn": "广东省汕头市潮南区国道324线新庆路段拉芳工业城",
      "regAddressEn": null,
      "officeAddressCn": "广东省汕头市龙湖区万吉工业龙江路拉芳大厦",
      "officeAddressEn": null,
      "currencyEncode": "019001",
      "listedDate": 1489334400000,
      "actualController": "吴桂谦 (30.86%)，Laurena Wu (18.79%)，吴滨华 (9.12%)",
      "classiName": "民营企业",
      "preNameCn": null,
      "actualIssueVol": 43600000,
      "issuePrice": 18.39,
      "actualRcNetAmt": 749883900,
      "peAfterIssuing": 22.99,
      "onlineSuccessRateOfIssue": 0.035393,
      "affiliateIndustry": "{\"ind_code\": \"BK0082\", \"ind_name\": \"美容护理\"}",
      "createdAt": "2025-09-04T23:15:20.657159Z",
      "updatedAt": "2025-09-04T23:15:20.657159Z"
    },
    {
      "id": 10,
      "stockCode": "603178.SH",
      "orgId": "T000227523",
      "orgNameCn": "宁波圣龙汽车动力系统股份有限公司",
      "orgShortNameCn": "圣龙股份",
      "orgNameEn": "Ningbo Shenglong Automotive Powertrain System Co.,Ltd.",
      "orgShortNameEn": "SLPT",
      "mainOperationBusiness": "汽车动力系统零部件的研发、生产和销售。",
      "operatingScope": "　　汽车零部件、机械配件、五金工具的研发、制造、加工、安装、调试及相关技术咨询、信息咨询；汽车零部件、机电设备、五金工具、金属材料、机械配件、建筑材料、化工原料、建筑装潢材料、日用百货、水暖器材、皮革制品的批发、零售；自营或代理货物和技术的进出口业务，但国家限制经营或禁止进出口的货物和技术除外。（依法须批准的项目，经相关部门批准后方可开展经营活动）",
      "districtEncode": "330212",
      "provincialName": "浙江省",
      "orgCnIntroduction": "宁波圣龙汽车动力系统股份有限公司的主营业务是汽车动力系统零部件的研发、生产和销售。公司的主要产品是发动机油泵、凸轮轴、变速箱油泵、分动箱油泵、变速器零件。公司拥有国家认定企业技术中心、国家级博士后工作站、“CNAS认可”的中心实验室，获评浙江省政府质量奖、国家级单项冠军等荣誉。",
      "legalRepresentative": "罗力成",
      "generalManager": "张文昌",
      "secretary": "张勇",
      "chairman": "罗力成",
      "executivesNums": 13,
      "establishedDate": 1176739200000,
      "regAsset": 236411881,
      "staffNum": 1457,
      "telephone": "86-574-88167898",
      "postcode": "315104",
      "fax": "86-574-88167123",
      "email": "slpt@sheng-long.com;alex.yong@sheng-long.com;jacqueline.wang@sheng-long.com",
      "orgWebsite": "slpt.sheng-long.com",
      "regAddressCn": "浙江省宁波市鄞州区工业园区金达路788号",
      "regAddressEn": null,
      "officeAddressCn": "浙江省宁波市鄞州区工业园区金达路788号",
      "officeAddressEn": null,
      "currencyEncode": "019001",
      "listedDate": 1490630400000,
      "actualController": "罗玉龙 (24.10%)，罗力成 (22.08%)，陈雅卿 (15.83%)",
      "classiName": "民营企业",
      "preNameCn": null,
      "actualIssueVol": 50000000,
      "issuePrice": 7.53,
      "actualRcNetAmt": 341032900,
      "peAfterIssuing": 22.99,
      "onlineSuccessRateOfIssue": 0.033347,
      "affiliateIndustry": "{\"ind_code\": \"BK0026\", \"ind_name\": \"汽车零部件\"}",
      "createdAt": "2025-09-04T23:15:21.023358Z",
      "updatedAt": "2025-09-04T23:15:21.023358Z"
    }
  ],
  "pageable": {
    "pageNumber": 0,
    "pageSize": 10,
    "sort": {
      "sorted": true,
      "empty": false,
      "unsorted": false
    },
    "offset": 0,
    "paged": true,
    "unpaged": false
  },
  "totalPages": 540,
  "totalElements": 5392,
  "last": false,
  "size": 10,
  "number": 0,
  "numberOfElements": 10,
  "sort": {
    "sorted": true,
    "empty": false,
    "unsorted": false
  },
  "first": true,
  "empty": false
}